%YAML 1.1
%TAG !u! tag:unity3d.com,2011:
--- !u!1001 &100100000
Prefab:
  m_ObjectHideFlags: 1
  serializedVersion: 2
  m_Modification:
    m_TransformParent: {fileID: 0}
    m_Modifications: []
    m_RemovedComponents: []
  m_ParentPrefab: {fileID: 0}
  m_RootGameObject: {fileID: 1021212447027356}
  m_IsPrefabParent: 1
--- !u!1 &1021212447027356
GameObject:
  m_ObjectHideFlags: 0
  m_PrefabParentObject: {fileID: 0}
  m_PrefabInternal: {fileID: 100100000}
  serializedVersion: 5
  m_Component:
  - component: {fileID: 4530127425597856}
  - component: {fileID: 212840619380980400}
  - component: {fileID: 95455851374978030}
  - component: {fileID: 114054936219743880}
  - component: {fileID: 60430826090146168}
  - component: {fileID: 114352787551860846}
  m_Layer: 8
  m_Name: alienAnimation
  m_TagString: alien
  m_Icon: {fileID: 0}
  m_NavMeshLayer: 0
  m_StaticEditorFlags: 0
  m_IsActive: 1
--- !u!4 &4530127425597856
Transform:
  m_ObjectHideFlags: 1
  m_PrefabParentObject: {fileID: 0}
  m_PrefabInternal: {fileID: 100100000}
  m_GameObject: {fileID: 1021212447027356}
  m_LocalRotation: {x: 0, y: 0, z: 0, w: 1}
  m_LocalPosition: {x: 9.408125, y: 0.71700126, z: 0}
  m_LocalScale: {x: 1, y: 1, z: 1}
  m_Children: []
  m_Father: {fileID: 0}
  m_RootOrder: 0
  m_LocalEulerAnglesHint: {x: 0, y: 0, z: 0}
--- !u!60 &60430826090146168
PolygonCollider2D:
  m_ObjectHideFlags: 1
  m_PrefabParentObject: {fileID: 0}
  m_PrefabInternal: {fileID: 100100000}
  m_GameObject: {fileID: 1021212447027356}
  m_Enabled: 1
  m_Density: 1
  m_Material: {fileID: 0}
  m_IsTrigger: 1
  m_UsedByEffector: 0
  m_Offset: {x: 0, y: 0}
  m_Points:
    m_Paths:
    - - {x: 0.26, y: -0.29}
      - {x: 0.71999997, y: -0.14999999}
      - {x: 0.75, y: -0.14}
      - {x: 0.85999995, y: -0.12}
      - {x: 1.17, y: 0.049999997}
      - {x: 1.4, y: 0.24}
      - {x: 1.51, y: 0.39}
      - {x: 1.56, y: 0.59999996}
      - {x: 1.56, y: 0.65999997}
      - {x: 1.53, y: 0.74}
      - {x: 1.3399999, y: 0.9}
      - {x: 1.26, y: 0.93}
      - {x: 1.01, y: 0.96999997}
      - {x: 0.82, y: 0.98999995}
      - {x: 0.74, y: 1.06}
      - {x: 0.64, y: 1.2099999}
      - {x: 0.59999996, y: 1.22}
      - {x: 0.56, y: 1.16}
      - {x: 0.65, y: 1.06}
      - {x: 0.64, y: 0.97999996}
      - {x: 0.47, y: 0.97999996}
      - {x: 0.39, y: 0.96999997}
      - {x: 0.34, y: 1.0799999}
      - {x: 0.22, y: 1.1999999}
      - {x: 0.13, y: 1.25}
      - {x: 0.03, y: 1.25}
      - {x: -0.049999997, y: 1.24}
      - {x: -0.19999999, y: 1.16}
      - {x: -0.39, y: 0.95}
      - {x: -0.44, y: 0.84}
      - {x: -0.51, y: 0.76}
      - {x: -0.74, y: 0.68}
      - {x: -0.71, y: 0.87}
      - {x: -0.57, y: 1.1}
      - {x: -0.31, y: 1.31}
      - {x: -0.31, y: 1.3399999}
      - {x: -0.34, y: 1.35}
      - {x: -0.35, y: 1.35}
      - {x: -0.42999998, y: 1.31}
      - {x: -0.57, y: 1.1899999}
      - {x: -0.65, y: 1.1}
      - {x: -0.76, y: 0.93}
      - {x: -0.82, y: 0.79999995}
      - {x: -0.89, y: 0.62}
      - {x: -1.22, y: 0.45999998}
      - {x: -1.25, y: 0.44}
      - {x: -1.35, y: 0.37}
      - {x: -1.5, y: 0.22}
      - {x: -1.54, y: 0.14}
      - {x: -1.54, y: -0.049999997}
      - {x: -1.52, y: -0.08}
      - {x: -1.43, y: -0.16}
      - {x: -1.3, y: -0.22999999}
      - {x: -1.2099999, y: -0.26999998}
      - {x: -0.97999996, y: -0.32}
      - {x: -0.81, y: -0.34}
      - {x: -0.71999997, y: -0.35}
      - {x: -0.25, y: -0.35}
      - {x: -0.17999999, y: -0.32999998}
      - {x: 0.11, y: -0.32}
    - - {x: 0.39, y: 1.38}
      - {x: 0.26999998, y: 1.41}
      - {x: 0.22999999, y: 1.41}
      - {x: 0.22, y: 1.39}
      - {x: 0.24, y: 1.36}
      - {x: 0.55, y: 1.1999999}
      - {x: 0.57, y: 1.1999999}
      - {x: 0.59, y: 1.2099999}
      - {x: 0.59, y: 1.24}
      - {x: 0.53, y: 1.3}
    - - {x: -0.11, y: 1.4}
      - {x: -0.099999994, y: 1.37}
      - {x: -0.049999997, y: 1.37}
      - {x: -0.03, y: 1.39}
      - {x: -0.04, y: 1.42}
      - {x: -0.089999996, y: 1.42}
    - - {x: 0.14999999, y: 1.4}
      - {x: 0.16, y: 1.37}
      - {x: 0.19999999, y: 1.37}
      - {x: 0.22, y: 1.39}
      - {x: 0.21, y: 1.42}
      - {x: 0.17, y: 1.42}
    - - {x: -0.02, y: 1.43}
      - {x: -0.03, y: 1.41}
      - {x: -0.01, y: 1.38}
      - {x: 0.12, y: 1.38}
      - {x: 0.14, y: 1.4}
      - {x: 0.13, y: 1.43}
--- !u!95 &95455851374978030
Animator:
  serializedVersion: 3
  m_ObjectHideFlags: 1
  m_PrefabParentObject: {fileID: 0}
  m_PrefabInternal: {fileID: 100100000}
  m_GameObject: {fileID: 1021212447027356}
  m_Enabled: 1
  m_Avatar: {fileID: 0}
  m_Controller: {fileID: 9100000, guid: 8d8e8314527154fc08e07ba2e847b6a0, type: 2}
  m_CullingMode: 0
  m_UpdateMode: 0
  m_ApplyRootMotion: 0
  m_LinearVelocityBlending: 0
  m_WarningMessage: 
  m_HasTransformHierarchy: 1
  m_AllowConstantClipSamplingOptimization: 1
--- !u!114 &114054936219743880
MonoBehaviour:
  m_ObjectHideFlags: 1
  m_PrefabParentObject: {fileID: 0}
  m_PrefabInternal: {fileID: 100100000}
  m_GameObject: {fileID: 1021212447027356}
  m_Enabled: 1
  m_EditorHideFlags: 0
  m_Script: {fileID: 11500000, guid: 94861e4815fae4f7aa1a71de593151da, type: 3}
  m_Name: 
  m_EditorClassIdentifier: 
  whereToDestroy: {fileID: 0}
--- !u!114 &114352787551860846
MonoBehaviour:
  m_ObjectHideFlags: 1
  m_PrefabParentObject: {fileID: 0}
  m_PrefabInternal: {fileID: 100100000}
  m_GameObject: {fileID: 1021212447027356}
  m_Enabled: 1
  m_EditorHideFlags: 0
  m_Script: {fileID: 11500000, guid: 78de4d1db08784579a5f9e9f6caf97b9, type: 3}
  m_Name: 
  m_EditorClassIdentifier: 
  angle: 45
  addForcePower: 3500
  sound: {fileID: 8300000, guid: c05ccb11bdc6b491b8d6f1d7a5627ed1, type: 3}
  explosion: {fileID: 0}
--- !u!212 &212840619380980400
SpriteRenderer:
  m_ObjectHideFlags: 1
  m_PrefabParentObject: {fileID: 0}
  m_PrefabInternal: {fileID: 100100000}
  m_GameObject: {fileID: 1021212447027356}
  m_Enabled: 1
  m_CastShadows: 0
  m_ReceiveShadows: 0
  m_MotionVectors: 1
  m_LightProbeUsage: 0
  m_ReflectionProbeUsage: 0
  m_Materials:
  - {fileID: 10754, guid: 0000000000000000f000000000000000, type: 0}
  m_StaticBatchInfo:
    firstSubMesh: 0
    subMeshCount: 0
  m_StaticBatchRoot: {fileID: 0}
  m_ProbeAnchor: {fileID: 0}
  m_LightProbeVolumeOverride: {fileID: 0}
  m_ScaleInLightmap: 1
  m_PreserveUVs: 0
  m_IgnoreNormalsForChartDetection: 0
  m_ImportantGI: 0
  m_SelectedEditorRenderState: 0
  m_MinimumChartSize: 4
  m_AutoUVMaxDistance: 0.5
  m_AutoUVMaxAngle: 89
  m_LightmapParameters: {fileID: 0}
  m_SortingLayerID: 0
  m_SortingOrder: 0
  m_Sprite: {fileID: 21300000, guid: d63ccca3e91144efaad3677e0b0129df, type: 3}
  m_Color: {r: 1, g: 1, b: 1, a: 1}
  m_FlipX: 0
  m_FlipY: 0
