%YAML 1.1
%TAG !u! tag:unity3d.com,2011:
--- !u!74 &7400000
AnimationClip:
  m_ObjectHideFlags: 0
  m_PrefabParentObject: {fileID: 0}
  m_PrefabInternal: {fileID: 0}
  m_Name: newSwingAnim
  serializedVersion: 6
  m_Legacy: 0
  m_Compressed: 0
  m_UseHighQualityCurve: 1
  m_RotationCurves: []
  m_CompressedRotationCurves: []
  m_EulerCurves: []
  m_PositionCurves: []
  m_ScaleCurves: []
  m_FloatCurves: []
  m_PPtrCurves:
  - curve:
    - time: 0
      value: {fileID: 21300000, guid: 5b1753fd361e1274cbb784e77f356053, type: 3}
    - time: 0.033333335
      value: {fileID: 21300000, guid: 0659bad6456ce3549bffd34b22a51c85, type: 3}
    - time: 0.06666667
      value: {fileID: 21300000, guid: 75a073726415ffa4b804df3bccd3307d, type: 3}
    - time: 0.1
      value: {fileID: 21300000, guid: fdb7d04c7eea88140b7d56626c98eeed, type: 3}
    - time: 0.13333334
      value: {fileID: 21300000, guid: 6cdd708665c6015439def6939f8ba1ca, type: 3}
    - time: 0.16666667
      value: {fileID: 21300000, guid: 6bad19159408243429ce83577fe92181, type: 3}
    - time: 0.2
      value: {fileID: 21300000, guid: 1e866820b12aa9848b0754294c538a65, type: 3}
    - time: 0.23333333
      value: {fileID: 21300000, guid: 1e866820b12aa9848b0754294c538a65, type: 3}
    - time: 0.26666668
      value: {fileID: 21300000, guid: 5ccbdcb7f65c2f84ab64a25eac40af44, type: 3}
    - time: 0.3
      value: {fileID: 21300000, guid: 94ece7aad17fa9b42a5e5fe1feef36bf, type: 3}
    - time: 0.33333334
      value: {fileID: 21300000, guid: da7932834704d3546aa53a4e5bc24c3e, type: 3}
    - time: 0.36666667
      value: {fileID: 21300000, guid: d3527adf42c7f024d843215bc6bdff6e, type: 3}
    - time: 0.4
      value: {fileID: 21300000, guid: ccaaff79dc1315946a185399dedc40e2, type: 3}
    - time: 0.43333334
      value: {fileID: 21300000, guid: 56791be2859f68143a3c8276e2d10dcd, type: 3}
    - time: 0.46666667
      value: {fileID: 21300000, guid: 0d71aa13ab75be746966481665a766fa, type: 3}
    - time: 0.5
      value: {fileID: 21300000, guid: 4efee8b383f3fc34fbd5ba09526009d5, type: 3}
    - time: 0.53333336
      value: {fileID: 21300000, guid: a976de5586ec5c240b4ea4765699bf4a, type: 3}
    attribute: m_Sprite
    path: 
    classID: 212
    script: {fileID: 0}
  m_SampleRate: 30
  m_WrapMode: 0
  m_Bounds:
    m_Center: {x: 0, y: 0, z: 0}
    m_Extent: {x: 0, y: 0, z: 0}
  m_ClipBindingConstant:
    genericBindings:
    - path: 0
      attribute: 0
      script: {fileID: 0}
      classID: 212
      customType: 23
      isPPtrCurve: 1
    pptrCurveMapping:
    - {fileID: 21300000, guid: 5b1753fd361e1274cbb784e77f356053, type: 3}
    - {fileID: 21300000, guid: 0659bad6456ce3549bffd34b22a51c85, type: 3}
    - {fileID: 21300000, guid: 75a073726415ffa4b804df3bccd3307d, type: 3}
    - {fileID: 21300000, guid: fdb7d04c7eea88140b7d56626c98eeed, type: 3}
    - {fileID: 21300000, guid: 6cdd708665c6015439def6939f8ba1ca, type: 3}
    - {fileID: 21300000, guid: 6bad19159408243429ce83577fe92181, type: 3}
    - {fileID: 21300000, guid: 1e866820b12aa9848b0754294c538a65, type: 3}
    - {fileID: 21300000, guid: 1e866820b12aa9848b0754294c538a65, type: 3}
    - {fileID: 21300000, guid: 5ccbdcb7f65c2f84ab64a25eac40af44, type: 3}
    - {fileID: 21300000, guid: 94ece7aad17fa9b42a5e5fe1feef36bf, type: 3}
    - {fileID: 21300000, guid: da7932834704d3546aa53a4e5bc24c3e, type: 3}
    - {fileID: 21300000, guid: d3527adf42c7f024d843215bc6bdff6e, type: 3}
    - {fileID: 21300000, guid: ccaaff79dc1315946a185399dedc40e2, type: 3}
    - {fileID: 21300000, guid: 56791be2859f68143a3c8276e2d10dcd, type: 3}
    - {fileID: 21300000, guid: 0d71aa13ab75be746966481665a766fa, type: 3}
    - {fileID: 21300000, guid: 4efee8b383f3fc34fbd5ba09526009d5, type: 3}
    - {fileID: 21300000, guid: a976de5586ec5c240b4ea4765699bf4a, type: 3}
  m_AnimationClipSettings:
    serializedVersion: 2
    m_AdditiveReferencePoseClip: {fileID: 0}
    m_AdditiveReferencePoseTime: 0
    m_StartTime: 0
    m_StopTime: 0.5666667
    m_OrientationOffsetY: 0
    m_Level: 0
    m_CycleOffset: 0
    m_HasAdditiveReferencePose: 0
    m_LoopTime: 1
    m_LoopBlend: 0
    m_LoopBlendOrientation: 0
    m_LoopBlendPositionY: 0
    m_LoopBlendPositionXZ: 0
    m_KeepOriginalOrientation: 0
    m_KeepOriginalPositionY: 1
    m_KeepOriginalPositionXZ: 0
    m_HeightFromFeet: 0
    m_Mirror: 0
  m_EditorCurves: []
  m_EulerEditorCurves: []
  m_HasGenericRootTransform: 0
  m_HasMotionFloatCurves: 0
  m_GenerateMotionCurves: 0
  m_IsEmpty: 0
  m_Events: []
