%YAML 1.1
%TAG !u! tag:unity3d.com,2011:
--- !u!74 &7400000
AnimationClip:
  m_ObjectHideFlags: 0
  m_PrefabParentObject: {fileID: 0}
  m_PrefabInternal: {fileID: 0}
  m_Name: Baseball_Idle
  serializedVersion: 6
  m_Legacy: 0
  m_Compressed: 0
  m_UseHighQualityCurve: 1
  m_RotationCurves: []
  m_CompressedRotationCurves: []
  m_EulerCurves: []
  m_PositionCurves: []
  m_ScaleCurves: []
  m_FloatCurves: []
  m_PPtrCurves:
  - curve:
    - time: 0
      value: {fileID: 21300000, guid: e3babb73a40ca0a479895982ac518ecb, type: 3}
    - time: 0.033333335
      value: {fileID: 21300000, guid: aae015608ae879a45a2e1e8829ddc965, type: 3}
    - time: 0.06666667
      value: {fileID: 21300000, guid: 6f070254e6f42984bbb072abae905d4c, type: 3}
    - time: 0.1
      value: {fileID: 21300000, guid: 8fc35c90b62f8904ab689f71ea8b6845, type: 3}
    - time: 0.13333334
      value: {fileID: 21300000, guid: 3f8efdb357624ee41b5cd68c42c4f119, type: 3}
    - time: 0.16666667
      value: {fileID: 21300000, guid: 4826ba4c82def2444bbcef6b231d3696, type: 3}
    - time: 0.2
      value: {fileID: 21300000, guid: a5746940778af6340aa10c266c698c99, type: 3}
    - time: 0.23333333
      value: {fileID: 21300000, guid: 76afa217dcabf2d40aec0e9f7314e0cd, type: 3}
    - time: 0.26666668
      value: {fileID: 21300000, guid: 3f7674f817864d146b573696ca57d658, type: 3}
    - time: 0.3
      value: {fileID: 21300000, guid: a44a0b140a6585c44acd84b913854b51, type: 3}
    - time: 0.33333334
      value: {fileID: 21300000, guid: 63a39c6a0e496e84e9a43d9ae422f289, type: 3}
    - time: 0.36666667
      value: {fileID: 21300000, guid: f9efe1d5606572f47befeab11cb42941, type: 3}
    - time: 0.4
      value: {fileID: 21300000, guid: 0e9cb7c1d2f0153418d4464449988edc, type: 3}
    - time: 0.43333334
      value: {fileID: 21300000, guid: 884a14149aa81874f8d01952a5a16ae8, type: 3}
    - time: 0.46666667
      value: {fileID: 21300000, guid: 36851d12444ca1d45987676fb3730630, type: 3}
    - time: 0.5
      value: {fileID: 21300000, guid: 5933e00978ba2d3418fc7b0c89879820, type: 3}
    - time: 0.53333336
      value: {fileID: 21300000, guid: efec79969c6cf7146a88f4a094a2ff98, type: 3}
    - time: 0.56666666
      value: {fileID: 21300000, guid: c52d0ddea6cef504f8434fe1ac426eba, type: 3}
    - time: 0.6
      value: {fileID: 21300000, guid: 88c6c492a57b82e4eabb4d57f14775f0, type: 3}
    - time: 0.6333333
      value: {fileID: 21300000, guid: 688ce7ea76287d14392481acd56700d2, type: 3}
    - time: 0.6666667
      value: {fileID: 21300000, guid: aa1fd650d5341ee48b65ee96305fa6df, type: 3}
    - time: 0.7
      value: {fileID: 21300000, guid: a1a8244d5f1721a418ddba0548eef6db, type: 3}
    - time: 0.73333335
      value: {fileID: 21300000, guid: 89ce6a6ea827e2f4ca31ee43c9191614, type: 3}
    - time: 0.76666665
      value: {fileID: 21300000, guid: 4319814ca3032ab4b87f1dad2d88b5cf, type: 3}
    - time: 0.8
      value: {fileID: 21300000, guid: 6b1e206c34f9900428289a3a1060ec0e, type: 3}
    - time: 0.8333333
      value: {fileID: 21300000, guid: 8269e69cfffec954baafc0b83657d0ce, type: 3}
    - time: 0.8666667
      value: {fileID: 21300000, guid: a779b11a882303f4c9af97bd52d11219, type: 3}
    - time: 0.9
      value: {fileID: 21300000, guid: 8bbbd52836db7fa4d9a955cb327d9a88, type: 3}
    - time: 0.93333334
      value: {fileID: 21300000, guid: 9226035dccefed14cbb764df282fc59a, type: 3}
    - time: 0.96666664
      value: {fileID: 21300000, guid: 62b0346d4ea8427479cc68e9ede36ad3, type: 3}
    - time: 1
      value: {fileID: 21300000, guid: 3243fea5301d3d24cad6e6dc150ce23f, type: 3}
    - time: 1.0333333
      value: {fileID: 21300000, guid: d73be938599ec3347ab0aca797c8adb0, type: 3}
    - time: 1.0666667
      value: {fileID: 21300000, guid: ce62a4f35029d884ca77a606d9d318c3, type: 3}
    - time: 1.1
      value: {fileID: 21300000, guid: fc921cc285d8d8c4ea602fe9b86965ad, type: 3}
    - time: 1.1333333
      value: {fileID: 21300000, guid: c198df37602cdc84f8f01284ccea5c97, type: 3}
    - time: 1.1666666
      value: {fileID: 21300000, guid: e5c7fc5781810b94abf0e72d635384b2, type: 3}
    - time: 1.2
      value: {fileID: 21300000, guid: 6617646b4da9502489090ac6e56d857b, type: 3}
    - time: 1.2333333
      value: {fileID: 21300000, guid: ba20fb509e75b7d408437969b282ab28, type: 3}
    - time: 1.2666667
      value: {fileID: 21300000, guid: ca74ffcd47378ff41996ad3dac263bac, type: 3}
    - time: 1.3
      value: {fileID: 21300000, guid: d486b3b9bcb64894cb061cc5dc358c4d, type: 3}
    - time: 1.3333334
      value: {fileID: 21300000, guid: 78e052960b3b30840a6dde279f365685, type: 3}
    - time: 1.3666667
      value: {fileID: 21300000, guid: 760ecab5ea3f1ed4c84103f63da6d334, type: 3}
    - time: 1.4
      value: {fileID: 21300000, guid: 67ccc2014aa49bb4eb2ec723d01986ae, type: 3}
    - time: 1.4333333
      value: {fileID: 21300000, guid: 5e2f5314677edcf4f832f96e199a72b6, type: 3}
    - time: 1.4666667
      value: {fileID: 21300000, guid: ae722d2213aa7334f85d96ac73be75f4, type: 3}
    - time: 1.5
      value: {fileID: 21300000, guid: ec64bdb2eae144246a9cecf976c7b752, type: 3}
    - time: 1.5333333
      value: {fileID: 21300000, guid: db0ef2699830ba74283b7dba42e3592e, type: 3}
    - time: 1.5666667
      value: {fileID: 21300000, guid: 5cf9db7a70203ae4a8461bc6b9e59f30, type: 3}
    - time: 1.6
      value: {fileID: 21300000, guid: 42c3f3ac6b2e584419f4b8ee408dca7c, type: 3}
    attribute: m_Sprite
    path: 
    classID: 212
    script: {fileID: 0}
  m_SampleRate: 30
  m_WrapMode: 0
  m_Bounds:
    m_Center: {x: 0, y: 0, z: 0}
    m_Extent: {x: 0, y: 0, z: 0}
  m_ClipBindingConstant:
    genericBindings:
    - path: 0
      attribute: 0
      script: {fileID: 0}
      classID: 212
      customType: 23
      isPPtrCurve: 1
    pptrCurveMapping:
    - {fileID: 21300000, guid: e3babb73a40ca0a479895982ac518ecb, type: 3}
    - {fileID: 21300000, guid: aae015608ae879a45a2e1e8829ddc965, type: 3}
    - {fileID: 21300000, guid: 6f070254e6f42984bbb072abae905d4c, type: 3}
    - {fileID: 21300000, guid: 8fc35c90b62f8904ab689f71ea8b6845, type: 3}
    - {fileID: 21300000, guid: 3f8efdb357624ee41b5cd68c42c4f119, type: 3}
    - {fileID: 21300000, guid: 4826ba4c82def2444bbcef6b231d3696, type: 3}
    - {fileID: 21300000, guid: a5746940778af6340aa10c266c698c99, type: 3}
    - {fileID: 21300000, guid: 76afa217dcabf2d40aec0e9f7314e0cd, type: 3}
    - {fileID: 21300000, guid: 3f7674f817864d146b573696ca57d658, type: 3}
    - {fileID: 21300000, guid: a44a0b140a6585c44acd84b913854b51, type: 3}
    - {fileID: 21300000, guid: 63a39c6a0e496e84e9a43d9ae422f289, type: 3}
    - {fileID: 21300000, guid: f9efe1d5606572f47befeab11cb42941, type: 3}
    - {fileID: 21300000, guid: 0e9cb7c1d2f0153418d4464449988edc, type: 3}
    - {fileID: 21300000, guid: 884a14149aa81874f8d01952a5a16ae8, type: 3}
    - {fileID: 21300000, guid: 36851d12444ca1d45987676fb3730630, type: 3}
    - {fileID: 21300000, guid: 5933e00978ba2d3418fc7b0c89879820, type: 3}
    - {fileID: 21300000, guid: efec79969c6cf7146a88f4a094a2ff98, type: 3}
    - {fileID: 21300000, guid: c52d0ddea6cef504f8434fe1ac426eba, type: 3}
    - {fileID: 21300000, guid: 88c6c492a57b82e4eabb4d57f14775f0, type: 3}
    - {fileID: 21300000, guid: 688ce7ea76287d14392481acd56700d2, type: 3}
    - {fileID: 21300000, guid: aa1fd650d5341ee48b65ee96305fa6df, type: 3}
    - {fileID: 21300000, guid: a1a8244d5f1721a418ddba0548eef6db, type: 3}
    - {fileID: 21300000, guid: 89ce6a6ea827e2f4ca31ee43c9191614, type: 3}
    - {fileID: 21300000, guid: 4319814ca3032ab4b87f1dad2d88b5cf, type: 3}
    - {fileID: 21300000, guid: 6b1e206c34f9900428289a3a1060ec0e, type: 3}
    - {fileID: 21300000, guid: 8269e69cfffec954baafc0b83657d0ce, type: 3}
    - {fileID: 21300000, guid: a779b11a882303f4c9af97bd52d11219, type: 3}
    - {fileID: 21300000, guid: 8bbbd52836db7fa4d9a955cb327d9a88, type: 3}
    - {fileID: 21300000, guid: 9226035dccefed14cbb764df282fc59a, type: 3}
    - {fileID: 21300000, guid: 62b0346d4ea8427479cc68e9ede36ad3, type: 3}
    - {fileID: 21300000, guid: 3243fea5301d3d24cad6e6dc150ce23f, type: 3}
    - {fileID: 21300000, guid: d73be938599ec3347ab0aca797c8adb0, type: 3}
    - {fileID: 21300000, guid: ce62a4f35029d884ca77a606d9d318c3, type: 3}
    - {fileID: 21300000, guid: fc921cc285d8d8c4ea602fe9b86965ad, type: 3}
    - {fileID: 21300000, guid: c198df37602cdc84f8f01284ccea5c97, type: 3}
    - {fileID: 21300000, guid: e5c7fc5781810b94abf0e72d635384b2, type: 3}
    - {fileID: 21300000, guid: 6617646b4da9502489090ac6e56d857b, type: 3}
    - {fileID: 21300000, guid: ba20fb509e75b7d408437969b282ab28, type: 3}
    - {fileID: 21300000, guid: ca74ffcd47378ff41996ad3dac263bac, type: 3}
    - {fileID: 21300000, guid: d486b3b9bcb64894cb061cc5dc358c4d, type: 3}
    - {fileID: 21300000, guid: 78e052960b3b30840a6dde279f365685, type: 3}
    - {fileID: 21300000, guid: 760ecab5ea3f1ed4c84103f63da6d334, type: 3}
    - {fileID: 21300000, guid: 67ccc2014aa49bb4eb2ec723d01986ae, type: 3}
    - {fileID: 21300000, guid: 5e2f5314677edcf4f832f96e199a72b6, type: 3}
    - {fileID: 21300000, guid: ae722d2213aa7334f85d96ac73be75f4, type: 3}
    - {fileID: 21300000, guid: ec64bdb2eae144246a9cecf976c7b752, type: 3}
    - {fileID: 21300000, guid: db0ef2699830ba74283b7dba42e3592e, type: 3}
    - {fileID: 21300000, guid: 5cf9db7a70203ae4a8461bc6b9e59f30, type: 3}
    - {fileID: 21300000, guid: 42c3f3ac6b2e584419f4b8ee408dca7c, type: 3}
  m_AnimationClipSettings:
    serializedVersion: 2
    m_AdditiveReferencePoseClip: {fileID: 0}
    m_AdditiveReferencePoseTime: 0
    m_StartTime: 0
    m_StopTime: 1.6333333
    m_OrientationOffsetY: 0
    m_Level: 0
    m_CycleOffset: 0
    m_HasAdditiveReferencePose: 0
    m_LoopTime: 1
    m_LoopBlend: 0
    m_LoopBlendOrientation: 0
    m_LoopBlendPositionY: 0
    m_LoopBlendPositionXZ: 0
    m_KeepOriginalOrientation: 0
    m_KeepOriginalPositionY: 1
    m_KeepOriginalPositionXZ: 0
    m_HeightFromFeet: 0
    m_Mirror: 0
  m_EditorCurves: []
  m_EulerEditorCurves: []
  m_HasGenericRootTransform: 0
  m_HasMotionFloatCurves: 0
  m_GenerateMotionCurves: 0
  m_IsEmpty: 0
  m_Events: []
